LabSequencial/processos/v_me.vcd
$date
  Thu Sep 13 16:45:18 2018
$end
$version
  GHDL v0
$end
$timescale
  1 fs
$end
$comment curr_st is not handled $end
$comment next_st is not handled $end
$var reg 1 ! clk $end
$var reg 1 " reset $end
$var reg 1 # entr $end
$var reg 1 $ found $end
$var reg 1 % esperada $end
$var integer 32 & dbg_st $end
$enddefinitions $end
#0
0!
0"
0#
0$
0%
b0 &
#500000
1!
#750000
1"
#1000000
0!
#1500000
1!
#2000000
0!
#2500000
1!
#3000000
0!
#3500000
1!
#4000000
0!
#4500000
1!
#5000000
0!
#5500000
1!
1#
#6000000
0!
#6500000
1!
b1 &
#7000000
0!
#7500000
1!
b0 &
#8000000
0!
#8500000
1!
b1 &
#9000000
0!
#9500000
1!
b0 &
#10000000
0!
#10500000
1!
b1 &
#11000000
0!
#11500000
1!
0#
b0 &
#12000000
0!
#12500000
1!
1%
#13000000
0!
#13500000
1!
0%
