somadores/v_csa.vcd
$date
  Tue Sep  4 14:26:23 2018
$end
$version
  GHDL v0
$end
$timescale
  1 fs
$end
$var reg 32 ! inpa[31:0] $end
$var reg 32 " inpb[31:0] $end
$var reg 32 # rescsa[31:0] $end
$var reg 1 $ vaicsa $end
$var reg 32 % esp_res[31:0] $end
$var reg 1 & esp_vai $end
$scope module u_csa $end
$var reg 32 ' inpa[31:0] $end
$var reg 32 ( inpb[31:0] $end
$var reg 32 ) outc[31:0] $end
$var reg 1 * vai $end
$var integer 32 + aint $end
$var integer 32 , bint $end
$var integer 32 - cint $end
$upscope $end
$enddefinitions $end
#0
b00000000000000000000000000000000 !
b00000000000000000000000000000000 "
b00000000000000000000000000000000 #
0$
b00000000000000000000000000000000 %
0&
b00000000000000000000000000000000 '
b00000000000000000000000000000000 (
b00000000000000000000000000000000 )
0*
b0 +
b0 ,
b0 -
#1000000
b00000000000000000000000000000001 !
b00000000000000000000000000000001 "
b00000000000000000000000000000010 #
b00000000000000000000000000000010 %
b00000000000000000000000000000001 '
b00000000000000000000000000000001 (
b00000000000000000000000000000010 )
b1 +
b1 ,
b10 -
#2000000
b00000000000000000000111111111111 !
b00000000000000000001000000000000 #
b00000000000000000001000000000000 %
b00000000000000000000111111111111 '
b00000000000000000001000000000000 )
b111111111111 +
b1000000000000 -
#3000000
b00000000000000010000000000000001 !
b00000000000000010000000000000001 "
b00000000000000100000000000000010 #
b00000000000000100000000000000010 %
b00000000000000010000000000000001 '
b00000000000000010000000000000001 (
b00000000000000100000000000000010 )
b10000000000000001 +
b10000000000000001 ,
b100000000000000010 -
#4000000
b00001111111111110000111111111111 !
b00010000000000000001000000000000 #
b00010000000000000001000000000000 %
b00001111111111110000111111111111 '
b00010000000000000001000000000000 )
b1111111111110000111111111111 +
b10000000000000001000000000000 -
#5000000
b00100010001000100010001000100010 !
b00010001000100010001000100010001 "
b00110011001100110011001100110011 #
b00110011001100110011001100110011 %
b00100010001000100010001000100010 '
b00010001000100010001000100010001 (
b00110011001100110011001100110011 )
b100010001000100010001000100010 +
b10001000100010001000100010001 ,
b110011001100110011001100110011 -
#6000000
b01000100010001000100010001000100 !
b01010101010101010101010101010101 #
b01010101010101010101010101010101 %
b01000100010001000100010001000100 '
b01010101010101010101010101010101 )
b1000100010001000100010001000100 +
b1010101010101010101010101010101 -
#7000000
b00010001000100010001000100010001 !
b10001000100010001000100010001000 "
b10011001100110011001100110011001 #
b10011001100110011001100110011001 %
b00010001000100010001000100010001 '
b10001000100010001000100010001000 (
b10011001100110011001100110011001 )
b10001000100010001000100010001 +
b10001000100010001000100010001000 ,
b10011001100110011001100110011001 -
#8000000
b10001000100010001000100010001000 !
b00010001000100010001000100010000 #
b00010001000100010001000100010000 %
1&
b10001000100010001000100010001000 '
b00010001000100010001000100010000 )
b10001000100010001000100010001000 +
b10001000100010001000100010000 -
#9000000
b00000000000000000000000000000000 !
b00000000000000000000000000000000 "
b00000000000000000000000000000000 #
b00000000000000000000000000000000 %
0&
b00000000000000000000000000000000 '
b00000000000000000000000000000000 (
b00000000000000000000000000000000 )
b0 +
b0 ,
b0 -
#10000000
b00000000000000000000000000000001 !
b00000000000000001111111111111111 "
b00000000000000010000000000000000 #
b00000000000000010000000000000000 %
b00000000000000000000000000000001 '
b00000000000000001111111111111111 (
b00000000000000010000000000000000 )
b1 +
b1111111111111111 ,
b10000000000000000 -
#11000000
b00000000000000000000000000000000 !
b00000000000000000000000000000000 "
b00000000000000000000000000000000 #
b00000000000000000000000000000000 %
b00000000000000000000000000000000 '
b00000000000000000000000000000000 (
b00000000000000000000000000000000 )
b0 +
b0 ,
b0 -
#12000000
b00000000000000010000000000000000 !
b11111111111111110000000000000000 "
1&
b00000000000000010000000000000000 '
b11111111111111110000000000000000 (
b10000000000000000 +
b11111111111111110000000000000000 ,
#13000000
b00000000000000000000000000000000 !
b00000000000000000000000000000000 "
0&
b00000000000000000000000000000000 '
b00000000000000000000000000000000 (
b0 +
b0 ,
